{
  "name": "services",
  "base": "PersistedModel",
  "idInjection": true,
  "options": {
    "validateUpsert": true
  },
  "properties": {
    "name": {
      "type": "string"
    },
    "description": {
      "type": "string"
    }
  },
  "validations": [],
  "relations": {
    "feedback": {
      "type": "hasMany",
      "model": "feedback",
      "foreignKey": ""
    },
    "steps": {
      "type": "hasMany",
      "model": "steps",
      "foreignKey": ""
    },
    "requirment": {
      "type": "hasMany",
      "model": "requirment",
      "foreignKey": ""
    },
    "companies": {
      "type": "hasMany",
      "model": "companies",
      "foreignKey": ""
    }
  },
  "acls": [],
  "methods": {}
}
